(lp0
I0
aI1
aI2
aI3
aI4
aI5
aI6
aI7
aI8
aI9
aI10
aI11
aI12
aI13
aI14
aI15
aI16
aI17
aI18
aI19
aI20
aI21
aI22
aI23
aI24
aI25
aI26
aI27
aI28
aI29
aI30
aI31
aI32
aI33
aI34
aI35
aI36
aI37
aI38
aI39
aI40
aI41
aI42
aI43
aI44
aI45
aI46
aI47
aI48
aI49
aI50
aI51
aI52
aI53
aI54
aI55
aI56
aI57
aI58
aI59
aI60
aI61
aI62
aI63
aI64
aI65
aI66
aI67
aI68
a.(lp0
F0.9867050647735596
aF1.988063097000122
aF2.9893360137939453
aF3.9905741214752197
aF4.9919211864471436
aF5.99466609954834
aF6.99909520149231
aF8.000088214874268
aF9.002462148666382
aF10.027172088623047
aF11.028622150421143
aF12.029920101165771
aF13.05081820487976
aF14.055843114852905
aF15.060095071792603
aF16.064731121063232
aF17.06595206260681
aF18.067162036895752
aF19.06834602355957
aF20.06953716278076
aF21.070757150650024
aF22.07195806503296
aF23.07317614555359
aF24.074377059936523
aF25.075568199157715
aF26.076762199401855
aF27.077946186065674
aF28.079097032546997
aF29.081175088882446
aF30.119052171707153
aF31.123921155929565
aF32.12572121620178
aF33.128446102142334
aF34.13085412979126
aF35.137166023254395
aF36.139317989349365
aF37.1414110660553
aF38.142614126205444
aF39.14382600784302
aF40.145042181015015
aF41.14682221412659
aF42.15036106109619
aF43.151865005493164
aF44.15306615829468
aF45.15428018569946
aF46.15547204017639
aF47.15670204162598
aF48.15791702270508
aF49.15969514846802
aF50.16198706626892
aF51.16423511505127
aF52.165433168411255
aF53.16663599014282
aF54.16787004470825
aF55.16908121109009
aF56.17026209831238
aF57.171449184417725
aF58.17267608642578
aF59.17392921447754
aF60.175130128860474
aF61.1764280796051
aF62.17793917655945
aF63.179726123809814
aF64.18096113204956
aF65.18217515945435
aF66.18337202072144
aF67.18457221984863
aF68.18579506874084
aF69.20165705680847
aF70.20467209815979
a.(lp0
F0.9872710704803467
aF1.9885241985321045
aF2.989739179611206
aF3.991054058074951
aF4.99234414100647
aF5.997161149978638
aF7.001155138015747
aF8.001700162887573
aF9.002947092056274
aF14.034518003463745
aF15.03622817993164
aF16.038921117782593
aF17.04014301300049
aF18.041357040405273
aF19.04248809814453
aF24.047831058502197
aF25.04871916770935
aF26.049912214279175
aF27.051084995269775
aF28.0526921749115
aF29.071076154708862
aF30.073392152786255
aF35.08120107650757
aF36.08260202407837
aF37.08386015892029
aF38.08506202697754
aF39.08805799484253
aF40.08938002586365
aF41.09059810638428
aF44.09395408630371
aF45.09516906738281
aF46.0963921546936
aF47.097607135772705
aF48.11638402938843
aF49.11816906929016
aF51.135287046432495
aF52.13650703430176
aF55.14534616470337
aF58.14918518066406
aF59.15046215057373
aF60.151700019836426
aF61.75250220298767
aF63.75551915168762
aF64.75993418693542
aF65.7612030506134
aF66.76241898536682
aF67.76664113998413
aF68.76876711845398
aF69.76998400688171
aF70.77119708061218
aF71.77239918708801
aF72.77360010147095
aF73.77483105659485
aF74.77605199813843
aF75.7773060798645
aF76.77870011329651
aF77.78012919425964
aF78.78256011009216
aF79.7837860584259
aF80.79291605949402
aF81.8242859840393
aF82.82552218437195
aF83.82788300514221
aF84.83067512512207
aF85.83255100250244
aF86.83378410339355
aF88.8363881111145
aF89.8376111984253
aF90.84143304824829
aF91.84324717521667
a.(lp0
I1
aI1
aI1
aI1
aI1
aI1
aI1
aI1
aI1
aI1
aI1
aI1
aI1
aI1
aI1
aI1
aI1
aI1
aI1
aI1
aI1
aI1
aI1
aI1
aI1
aI1
aI1
aI1
aI1
aI1
aI1
aI1
aI1
aI1
aI1
aI1
aI1
aI1
aI1
aI1
aI1
aI1
aI1
aI1
aI1
aI1
aI1
aI1
aI1
aI1
aI1
aI1
aI1
aI1
aI1
aI1
aI1
aI1
aI1
aI1
aI1
aI1
aI1
aI1
aI1
aI1
aI1
aI1
aI1
aI1
aI1
aI1
aI1
aI1
aI1
aI1
a.(lp0
F0.0
aF0.2
aF0.4
aF0.6
aF0.8
aF1.0
aF1.0
aF1.0
aF1.0
aF1.0
aF1.0
aF1.0
aF1.0
aF0.8
aF1.0
aF1.0
aF1.0
aF1.0
aF1.0
aF1.0
aF1.0
aF1.0
aF1.0
aF1.0
aF1.0
aF1.0
aF1.0
aF1.0
aF1.0
aF1.0
aF1.0
aF1.0
aF1.0
aF1.0
aF1.0
aF1.0
aF1.0
aF1.0
aF1.0
aF1.0
aF1.0
aF1.0
aF1.0
aF1.0
aF1.0
aF1.0
aF1.0
aF1.0
aF1.0
aF1.0
aF1.0
aF1.0
aF1.0
aF1.0
aF1.0
aF1.0
aF1.0
aF1.0
aF1.0
aF1.0
aF1.0
aF1.0
aF1.0
aF0.8
aF0.4
aF0.2
aF0.0
aF0.0
aF0.0
aF0.0
aF0.0
aF0.0
aF0.0
aF0.0
aF0.0
aF0.0
a.(lp0
F0.0
aF0.2
aF0.4
aF0.6
aF0.8
aF1.0
aF1.0
aF1.0
aF1.0
aF1.0
aF0.8
aF0.6
aF0.4
aF0.0
aF0.4
aF0.6
aF0.8
aF1.0
aF1.0
aF0.8
aF0.6
aF0.4
aF0.2
aF0.2
aF0.4
aF0.6
aF0.8
aF1.0
aF1.0
aF1.0
aF0.8
aF0.6
aF0.4
aF0.2
aF0.2
aF0.4
aF0.6
aF0.8
aF1.0
aF1.0
aF1.0
aF0.8
aF0.6
aF0.6
aF0.6
aF0.6
aF0.8
aF0.8
aF0.8
aF0.8
aF0.8
aF0.6
aF0.4
aF0.4
aF0.2
aF0.6
aF0.8
aF0.6
aF0.8
aF0.8
aF0.8
aF1.0
aF1.0
aF1.0
aF1.0
aF1.0
aF1.0
aF1.0
aF1.0
aF1.0
aF1.0
aF1.0
aF1.0
aF0.8
aF0.8
aF0.8
a.(lp0
F0.3858962059020996
aF1.3636760711669922
aF2.421941041946411
aF3.473198175430298
aF4.535344123840332
aF5.605818033218384
aF6.673501014709473
aF7.736968994140625
aF8.812815189361572
aF9.881227016448975
aF10.943003177642822
aF11.967152118682861
aF12.998212099075317
aF14.030916213989258
aF15.092797994613647
aF16.143676042556763
aF17.17051911354065
aF18.226495027542114
aF19.256206035614014
aF20.280550003051758
aF21.276151180267334
aF22.268156051635742
aF23.266311168670654
aF24.262490034103394
aF25.284523010253906
aF26.299252033233643
aF27.317830085754395
aF28.345434188842773
aF29.37478017807007
aF30.397094011306763
aF31.417925119400024
aF32.414239168167114
aF33.41098213195801
aF34.38710021972656
aF35.3583869934082
aF36.376697063446045
aF37.38364815711975
aF38.396239042282104
aF39.44443416595459
aF40.49007511138916
aF41.488440990448
aF42.49929904937744
aF43.508565187454224
aF44.52308201789856
aF45.773699045181274
aF46.86060404777527
aF47.97309613227844
aF49.09750509262085
aF50.251108169555664
aF51.400564193725586
aF52.56991219520569
aF53.79332709312439
aF55.025864124298096
aF56.2249391078949
aF57.46088409423828
aF59.36096405982971
aF62.198182106018066
aF63.51415705680847
aF64.90609312057495
aF66.36483907699585
aF67.70653915405273
aF69.09076499938965
aF70.45658802986145
aF71.962562084198
aF73.40744709968567
aF74.83447504043579
aF76.27303814888
aF77.73090410232544
aF79.20425701141357
aF80.68353509902954
aF83.23422813415527
aF84.77675819396973
aF86.27955317497253
aF87.87241411209106
aF89.41377305984497
aF90.95129108428955
a.(lp0
F0.3858962059020996
aF1.3636760711669922
aF2.421941041946411
aF3.473198175430298
aF4.535344123840332
aF5.605818033218384
aF6.673501014709473
aF7.736968994140625
aF8.812815189361572
aF9.881227016448975
aF10.943003177642822
aF11.967152118682861
aF12.998212099075317
aF14.030916213989258
aF15.092797994613647
aF16.143676042556763
aF17.17051911354065
aF18.226495027542114
aF19.256206035614014
aF20.280550003051758
aF21.276151180267334
aF22.268156051635742
aF23.266311168670654
aF24.262490034103394
aF25.284523010253906
aF26.299252033233643
aF27.317830085754395
aF28.345434188842773
aF29.37478017807007
aF30.397094011306763
aF31.417925119400024
aF32.414239168167114
aF33.41098213195801
aF34.38710021972656
aF35.3583869934082
aF36.376697063446045
aF37.38364815711975
aF38.396239042282104
aF39.44443416595459
aF40.49007511138916
aF41.488440990448
aF42.49929904937744
aF43.508565187454224
aF44.52308201789856
aF45.773699045181274
aF46.86060404777527
aF47.97309613227844
aF49.09750509262085
aF50.251108169555664
aF51.400564193725586
aF52.56991219520569
aF53.79332709312439
aF55.025864124298096
aF56.2249391078949
aF57.46088409423828
aF59.36096405982971
aF62.198182106018066
aF63.51415705680847
aF64.90609312057495
aF66.36483907699585
aF67.70653915405273
aF69.09076499938965
aF70.45658802986145
aF71.962562084198
aF73.40744709968567
aF74.83447504043579
aF76.27303814888
aF77.73090410232544
aF79.20425701141357
aF80.68353509902954
aF83.23422813415527
aF84.77675819396973
aF86.27955317497253
aF87.87241411209106
aF89.41377305984497
aF90.95129108428955
a.(lp0
F0.3858962059020996
aF1.3636760711669922
aF2.421941041946411
aF3.473198175430298
aF4.535344123840332
aF5.605818033218384
aF6.673501014709473
aF7.736968994140625
aF8.812815189361572
aF9.881227016448975
aF10.943003177642822
aF11.967152118682861
aF12.998212099075317
aF14.030916213989258
aF15.092797994613647
aF16.143676042556763
aF17.17051911354065
aF18.226495027542114
aF19.256206035614014
aF20.280550003051758
aF21.276151180267334
aF22.268156051635742
aF23.266311168670654
aF24.262490034103394
aF25.284523010253906
aF26.299252033233643
aF27.317830085754395
aF28.345434188842773
aF29.37478017807007
aF30.397094011306763
aF31.417925119400024
aF32.414239168167114
aF33.41098213195801
aF34.38710021972656
aF35.3583869934082
aF36.376697063446045
aF37.38364815711975
aF38.396239042282104
aF39.44443416595459
aF40.49007511138916
aF41.488440990448
aF42.49929904937744
aF43.508565187454224
aF44.52308201789856
aF45.773699045181274
aF46.86060404777527
aF47.97309613227844
aF49.09750509262085
aF50.251108169555664
aF51.400564193725586
aF52.56991219520569
aF53.79332709312439
aF55.025864124298096
aF56.2249391078949
aF57.46088409423828
aF59.36096405982971
aF62.198182106018066
aF63.51415705680847
aF64.90609312057495
aF66.36483907699585
aF67.70653915405273
aF69.09076499938965
aF70.45658802986145
aF71.962562084198
aF73.40744709968567
aF74.83447504043579
aF76.27303814888
aF77.73090410232544
aF79.20425701141357
aF80.68353509902954
aF83.23422813415527
aF84.77675819396973
aF86.27955317497253
aF87.87241411209106
aF89.41377305984497
aF90.95129108428955
a.(lp0
I0
aI1
aI2
aI3
aI4
aI5
aI6
aI7
aI7
aI8
aI8
aI7
aI8
aI9
aI9
aI9
aI10
aI10
aI9
aI10
aI9
aI9
aI9
aI10
aI9
aI9
aI9
aI10
aI8
aI8
aI9
aI10
aI10
aI8
aI8
aI8
aI8
aI8
aI8
aI9
aI10
aI9
aI9
aI9
aI10
aI9
aI8
aI9
aI10
aI10
aI8
aI9
aI9
aI9
aI9
aI8
aI9
aI9
aI9
aI10
aI8
aI9
aI10
aI7
aI6
aI5
aI4
aI1
aI0
aI0
aI0
aI0
aI0
aI0
aI0
aI0
a.(lp0
I0
aI1
aI2
aI3
aI4
aI5
aI6
aI7
aI8
aI9
aI9
aI9
aI7
aI5
aI4
aI5
aI5
aI6
aI6
aI6
aI6
aI6
aI6
aI5
aI5
aI6
aI5
aI5
aI6
aI7
aI7
aI7
aI7
aI5
aI4
aI5
aI4
aI4
aI5
aI6
aI7
aI7
aI7
aI6
aI6
aI6
aI6
aI8
aI6
aI7
aI8
aI6
aI5
aI6
aI5
aI4
aI5
aI5
aI7
aI7
aI8
aI7
aI8
aI9
aI10
aI9
aI9
aI9
aI9
aI8
aI10
aI9
aI9
aI10
aI10
aI10
a.