[
      {
        "role": "role1",
        "weight": 5.0
      },
      {
        "role": "role2",
        "weight": 0.000000001
      },
      {
        "role": "role3",
        "weight": 0.000000001
      },
      {
        "role": "role4",
        "weight": 4.0
      },
      {
        "role": "role5",
        "weight": 14.0
      }
]
